Final Project
…
Expand the Model Fit

Code

# We have selected the best LASSO model above, and assigned it to best_lasso

final_fit <- finalize_workflow(lasso_wf, best_lasso) %>% 
  last_fit(split)

final_fit %>%
  extract_fit_parsnip() %>%
  tidy()

# A tibble: 314 × 3
   term                 estimate   penalty
   <chr>                   <dbl>     <dbl>
 1 (Intercept)          0.115    0.0000183
 2 LACCESS_POP10        0        0.0000183
 3 PCT_LACCESS_POP10   -0.0169   0.0000183
 4 LACCESS_LOWI10       0.00291  0.0000183
 5 PCT_LACCESS_LOWI10   0.00873  0.0000183
 6 LACCESS_HHNV10       0.00153  0.0000183
 7 PCT_LACCESS_HHNV10  -0.000222 0.0000183
 8 LACCESS_CHILD10     -0.00330  0.0000183
 9 PCT_LACCESS_CHILD10  0.00570  0.0000183
10 LACCESS_SENIORS10    0.000226 0.0000183
# ℹ 304 more rows
…
